digraph "/home/valentin/Bureau/ProjetAlgoCir2Gyges/structure.h"
{
  edge [fontname="Helvetica",fontsize="10",labelfontname="Helvetica",labelfontsize="10"];
  node [fontname="Helvetica",fontsize="10",shape=record];
  Node1 [label="/home/valentin/Bureau\l/ProjetAlgoCir2Gyges\l/structure.h",height=0.2,width=0.4,color="black", fillcolor="grey75", style="filled", fontcolor="black"];
  Node1 -> Node2 [color="midnightblue",fontsize="10",style="solid"];
  Node2 [label="libISEN/BmpLib.h",height=0.2,width=0.4,color="grey75", fillcolor="white", style="filled"];
}
