digraph "/home/valentin/Bureau/ProjetAlgoCir2Gyges/GereClavier.h"
{
  edge [fontname="Helvetica",fontsize="10",labelfontname="Helvetica",labelfontsize="10"];
  node [fontname="Helvetica",fontsize="10",shape=record];
  Node1 [label="/home/valentin/Bureau\l/ProjetAlgoCir2Gyges\l/GereClavier.h",height=0.2,width=0.4,color="black", fillcolor="grey75", style="filled", fontcolor="black"];
  Node1 -> Node2 [dir="back",color="midnightblue",fontsize="10",style="solid",fontname="Helvetica"];
  Node2 [label="/home/valentin/Bureau\l/ProjetAlgoCir2Gyges\l/board.c",height=0.2,width=0.4,color="black", fillcolor="white", style="filled",URL="$board_8c.html"];
  Node1 -> Node3 [dir="back",color="midnightblue",fontsize="10",style="solid",fontname="Helvetica"];
  Node3 [label="/home/valentin/Bureau\l/ProjetAlgoCir2Gyges\l/GereClavier.c",height=0.2,width=0.4,color="black", fillcolor="white", style="filled",URL="$_gere_clavier_8c.html"];
  Node1 -> Node4 [dir="back",color="midnightblue",fontsize="10",style="solid",fontname="Helvetica"];
  Node4 [label="/home/valentin/Bureau\l/ProjetAlgoCir2Gyges\l/GereClic.c",height=0.2,width=0.4,color="black", fillcolor="white", style="filled",URL="$_gere_clic_8c.html"];
  Node1 -> Node5 [dir="back",color="midnightblue",fontsize="10",style="solid",fontname="Helvetica"];
  Node5 [label="/home/valentin/Bureau\l/ProjetAlgoCir2Gyges\l/GestionAffichage.c",height=0.2,width=0.4,color="black", fillcolor="white", style="filled",URL="$_gestion_affichage_8c.html"];
  Node1 -> Node6 [dir="back",color="midnightblue",fontsize="10",style="solid",fontname="Helvetica"];
  Node6 [label="/home/valentin/Bureau\l/ProjetAlgoCir2Gyges\l/main.c",height=0.2,width=0.4,color="black", fillcolor="white", style="filled",URL="$main_8c.html"];
}
