digraph "box"
{
  edge [fontname="Helvetica",fontsize="10",labelfontname="Helvetica",labelfontsize="10"];
  node [fontname="Helvetica",fontsize="10",shape=record];
  Node1 [label="box",height=0.2,width=0.4,color="black", fillcolor="grey75", style="filled", fontcolor="black"];
  Node2 -> Node1 [dir="back",color="darkorchid3",fontsize="10",style="dashed",label=" parent" ,fontname="Helvetica"];
  Node2 [label="direction",height=0.2,width=0.4,color="black", fillcolor="white", style="filled",URL="$structdirection.html"];
  Node3 -> Node1 [dir="back",color="darkorchid3",fontsize="10",style="dashed",label=" c" ,fontname="Helvetica"];
  Node3 [label="square",height=0.2,width=0.4,color="black", fillcolor="white", style="filled",URL="$structsquare.html"];
  Node4 -> Node3 [dir="back",color="darkorchid3",fontsize="10",style="dashed",label=" min\nmax" ,fontname="Helvetica"];
  Node4 [label="dot",height=0.2,width=0.4,color="black", fillcolor="white", style="filled",URL="$structdot.html"];
}
