digraph "gameParam"
{
  edge [fontname="Helvetica",fontsize="10",labelfontname="Helvetica",labelfontsize="10"];
  node [fontname="Helvetica",fontsize="10",shape=record];
  Node1 [label="gameParam",height=0.2,width=0.4,color="black", fillcolor="grey75", style="filled", fontcolor="black"];
  Node2 -> Node1 [dir="back",color="darkorchid3",fontsize="10",style="dashed",label=" gameStatus" ,fontname="Helvetica"];
  Node2 [label="status",height=0.2,width=0.4,color="black", fillcolor="white", style="filled",URL="$structstatus.html"];
  Node3 -> Node1 [dir="back",color="darkorchid3",fontsize="10",style="dashed",label=" P1\nP2" ,fontname="Helvetica"];
  Node3 [label="player",height=0.2,width=0.4,color="black", fillcolor="white", style="filled",URL="$structplayer.html"];
}
